…
    marvel_movies <- as_tibble(imdb_table) %>%
        mutate(ReleaseDate = fct_recode(ReleaseDate, "July 17, 2015 (2015-07-17)" ="July 17, 2015"),
      ReleaseDate = str_extract(ReleaseDate, "....-..-..")) %>%
      left_join(gross, c("Title" = "Movie")) %>%
      as_tibble()

    show(marvel_movies)

    ## # A tibble: 21 x 14
    ##    Title  Direction  Runtime Actors  Metascore imdbRating BoxOffice Awards
    ##    <chr>  <chr>      <chr>   <chr>       <dbl>      <dbl>     <dbl> <chr> 
    ##  1 Iron … Jon Favre… 126 min Robert…      79.0       7.90 318298180 Nomin…
    ##  2 The I… Louis Let… 112 min Edward…      61.0       6.80 134518390 1 win…
    ##  3 Iron … Jon Favre… 124 min Robert…      57.0       7.00 312057433 Nomin…
    ##  4 Thor   Kenneth B… 115 min Chris …      57.0       7.00 181015141 5 win…
    ##  5 Capta… Joe Johns… 124 min Chris …      66.0       6.90 176636816 3 win…
    ##  6 The A… Joss Whed… 143 min Robert…      69.0       8.10 623279547 Nomin…
    ##  7 Iron … Shane Bla… 130 min Robert…      62.0       7.20 408992272 Nomin…
    ##  8 Thor:… Alan Tayl… 112 min Chris …      54.0       7.00 206360018 3 win…
    ##  9 Capta… Anthony R… 136 min Chris …      70.0       7.80 228636083 Nomin…
    ## 10 Guard… James Gunn 121 min Chris …      76.0       8.10 270592504 Nomin…
    ## # ... with 11 more rows, and 6 more variables: ReleaseDate <chr>,
    ## #   HeroType <chr>, ProductionBudget <chr>, DomesticOpeningWeekend <chr>,
    ## #   `DomesticBox Office` <chr>, `WorldwideBox Office` <chr>
…
